Assignment 3: Kickstarter Projects
…
## `summarise()` ungrouping output (override with `.groups` argument)

for_plot_pyramid = left_join(corpus_topandbottom1000_dt, corpus_topandbottom1000_count, by='term')

for_plot_pyramid <- for_plot_pyramid %>%
  filter(!is.na(total_word )) %>%
  group_by(bestworst) %>%
  mutate(count_forplot = ifelse(bestworst == 'Bottom', count*-1, count))

for_plot_pyramid

## # A tibble: 1,704 x 6
## # Groups:   bestworst [2]
##    document   term  count bestworst total_word count_forplot
##    <chr>      <chr> <dbl> <chr>          <dbl>         <dbl>
##  1 1230734355 get       1 Top               63             1
##  2 1230734355 new       1 Top              149             1
##  3 1004649506 game      1 Top              115             1
##  4 1080054203 book      1 Top               82             1
##  5 1442022498 book      1 Top               82             1
##  6 1442022498 help      1 Top              145             1
##  7 371573338  make      1 Top              114             1
##  8 371573338  want      1 Top               84             1
##  9 1617517226 album     1 Top               59             1
## 10 1617517226 new       1 Top              149             1
## #  with 1,694 more rows
…
