…
```
## `summarise()` ungrouping output (override with `.groups` argument)
```

```r
manhattan_violations_group_fine <- subset(df_violations_group_fine,as.integer(Violation.Precinct) <= 34)

manhattan_violations_group_fine$Violation.Precinct <- as.factor(manhattan_violations_group_fine$Violation.Precinct)

manhattan_violations_group_fine
```

```
## # A tibble: 31 x 2
##    Violation.Precinct total_fines_byprec
##    <fct>                           <dbl>
##  1 0                               24770
##  2 1                            14698510
##  3 2                                 785
##  4 3                                 410
##  5 4                                 770
##  6 5                             7870865
##  7 6                            10193765
##  8 7                             5123620
##  9 8                                 190
## 10 9                             8284975
## # … with 21 more rows
```
…
```
## `summarise()` ungrouping output (override with `.groups` argument)
```

```r
manhattan_violations_group_fine_mean <- subset(df_violations_group_fine_mean,as.integer(Violation.Precinct) <= 34)

manhattan_violations_group_fine_mean$Violation.Precinct <- as.factor(manhattan_violations_group_fine_mean$Violation.Precinct)

manhattan_violations_group_fine_mean
```

```
## # A tibble: 31 x 2
##    Violation.Precinct mean_fines_byprec
##    <fct>                          <dbl>
##  1 0                              106. 
##  2 1                               89.9
##  3 2                              112. 
##  4 3                              102. 
##  5 4                               96.2
##  6 5                               84.8
##  7 6                               81.4
##  8 7                               82.8
##  9 8                               95  
## 10 9                               86.1
## # … with 21 more rows
```
…
```r
duplicated_offences_uppereast <- df_fire_hydrants_uppereast %>% 
  group_by(Plate.ID) %>% 
  filter(n()>1) 

duplicated_offences_uppereast #for whole dataset#
```

```
## # A tibble: 5,826 x 54
## # Groups:   Plate.ID [2,194]
##    Violation.Code Summons.Number Plate.ID Registration.St… Plate.Type Issue.Date
##             <int>          <dbl> <chr>    <chr>            <chr>      <chr>     
##  1             40     8853963256 DME7952  NY               PAS        01/19/2021
##  2             40     8820927962 P81BJL   NJ               PAS        11/02/2020
##  3             40     8717499100 GPT6930  NY               PAS        11/06/2020
##  4             40     8796814160 63805NA  NY               COM        10/20/2020
##  5             40     8796816624 HNY6738  NY               PAS        11/03/2020
##  6             40     8844318350 Y13SDB   FL               PAS        11/25/2020
##  7             40     8736575483 FHD2188  NY               PAS        08/10/2020
##  8             40     8820504601 XFUT29   NJ               PAS        07/01/2020
##  9             40     8809715810 58930MM  NY               COM        06/29/2020
## 10             40     8809742692 EWU2149  NY               PAS        10/27/2020
## # … with 5,816 more rows, and 48 more variables: Vehicle.Body.Type <chr>,
## #   Vehicle.Make <chr>, Issuing.Agency <chr>, Street.Code1 <int>,
## #   Street.Code2 <int>, Street.Code3 <int>, Vehicle.Expiration.Date <int>,
## #   Violation.Location <int>, Violation.Precinct <int>, Issuer.Precinct <int>,
## #   Issuer.Code <int>, Issuer.Command <chr>, Issuer.Squad <chr>,
## #   Violation.Time <chr>, Time.First.Observed <chr>, Violation.County <chr>,
## #   Violation.In.Front.Of.Or.Opposite <chr>, House.Number <chr>,
## #   Street.Name <chr>, Intersecting.Street <chr>, Date.First.Observed <int>,
## #   Law.Section <int>, Sub.Division <chr>, Violation.Legal.Code <lgl>,
…
